EESchema Schematic File Version 2
LIBS:power
LIBS:device
LIBS:transistors
LIBS:conn
LIBS:linear
LIBS:regul
LIBS:74xx
LIBS:cmos4000
LIBS:adc-dac
LIBS:memory
LIBS:xilinx
LIBS:microcontrollers
LIBS:dsp
LIBS:microchip
LIBS:analog_switches
LIBS:motorola
LIBS:texas
LIBS:intel
LIBS:audio
LIBS:interface
LIBS:digital-audio
LIBS:philips
LIBS:display
LIBS:cypress
LIBS:siliconi
LIBS:opto
LIBS:atmel
LIBS:contrib
LIBS:valves
LIBS:edulib
LIBS:stm32
LIBS:warsztaty
LIBS:libacja
LIBS:schematy-cache
EELAYER 25 0
EELAYER END
$Descr A4 11693 8268
encoding utf-8
Sheet 1 1
Title ""
Date ""
Rev ""
Comp ""
Comment1 ""
Comment2 ""
Comment3 ""
Comment4 ""
$EndDescr
$Comp
L +3.3V #PWR01
U 1 1 58211BF9
P 5300 875
F 0 "#PWR01" H 5300 725 50  0001 C CNN
F 1 "+3.3V" H 5300 1015 50  0000 C CNN
F 2 "" H 5300 875 50  0000 C CNN
F 3 "" H 5300 875 50  0000 C CNN
	1    5300 875 
	1    0    0    -1  
$EndComp
$Comp
L L_Small L1
U 1 1 58211C37
P 5950 950
F 0 "L1" H 5980 990 50  0000 L CNN
F 1 "10uH" H 5980 910 50  0000 L CNN
F 2 "" H 5950 950 50  0001 C CNN
F 3 "" H 5950 950 50  0000 C CNN
	1    5950 950 
	0    -1   -1   0   
$EndComp
$Comp
L C_Small C5
U 1 1 582121DA
P 6400 900
F 0 "C5" H 6410 970 50  0000 L CNN
F 1 "100nF" H 6410 820 50  0000 L CNN
F 2 "" H 6400 900 50  0001 C CNN
F 3 "" H 6400 900 50  0000 C CNN
	1    6400 900 
	0    1    1    0   
$EndComp
$Comp
L GND #PWR02
U 1 1 582123F8
P 6725 1000
F 0 "#PWR02" H 6725 750 50  0001 C CNN
F 1 "GND" H 6725 850 50  0000 C CNN
F 2 "" H 6725 1000 50  0000 C CNN
F 3 "" H 6725 1000 50  0000 C CNN
	1    6725 1000
	1    0    0    -1  
$EndComp
$Comp
L GND #PWR03
U 1 1 582128A0
P 5750 5075
F 0 "#PWR03" H 5750 4825 50  0001 C CNN
F 1 "GND" H 5750 4925 50  0000 C CNN
F 2 "" H 5750 5075 50  0000 C CNN
F 3 "" H 5750 5075 50  0000 C CNN
	1    5750 5075
	1    0    0    -1  
$EndComp
NoConn ~ 4275 2525
NoConn ~ 4275 2625
NoConn ~ 4275 2725
NoConn ~ 4275 1775
NoConn ~ 4275 1975
NoConn ~ 4275 2125
NoConn ~ 4275 3775
NoConn ~ 4275 4075
NoConn ~ 7275 2575
NoConn ~ 7275 2675
NoConn ~ 7275 2775
NoConn ~ 7275 2875
NoConn ~ 7275 2975
NoConn ~ 7275 3275
$Comp
L LM1117 U4
U 1 1 582B20B6
P 1775 2850
F 0 "U4" H 1925 2654 60  0000 C CNN
F 1 "LM1117" H 1775 3050 60  0000 C CNN
F 2 "" H 1775 2850 60  0001 C CNN
F 3 "" H 1775 2850 60  0000 C CNN
	1    1775 2850
	1    0    0    -1  
$EndComp
$Comp
L R_Small R10
U 1 1 582B5178
P 2700 2900
F 0 "R10" H 2730 2920 50  0000 L CNN
F 1 "330R" H 2730 2860 50  0000 L CNN
F 2 "" H 2700 2900 50  0001 C CNN
F 3 "" H 2700 2900 50  0000 C CNN
	1    2700 2900
	1    0    0    -1  
$EndComp
$Comp
L Led_Small D1
U 1 1 582B557F
P 2700 3100
F 0 "D1" H 2650 3225 50  0000 L CNN
F 1 "LED" V 2525 3000 50  0000 L CNN
F 2 "" V 2700 3100 50  0001 C CNN
F 3 "" V 2700 3100 50  0000 C CNN
	1    2700 3100
	0    -1   -1   0   
$EndComp
NoConn ~ 7275 2475
$Comp
L GND #PWR04
U 1 1 582B90FC
P 2925 3275
F 0 "#PWR04" H 2925 3025 50  0001 C CNN
F 1 "GND" H 2925 3125 50  0000 C CNN
F 2 "" H 2925 3275 50  0000 C CNN
F 3 "" H 2925 3275 50  0000 C CNN
	1    2925 3275
	1    0    0    -1  
$EndComp
$Comp
L CONN_01X09 P5
U 1 1 582C3FD2
P 7900 1100
F 0 "P5" H 7900 1600 50  0000 C CNN
F 1 "CZUJNIKI" V 8000 1100 50  0000 C CNN
F 2 "" H 7900 1100 50  0001 C CNN
F 3 "" H 7900 1100 50  0000 C CNN
	1    7900 1100
	0    -1   -1   0   
$EndComp
$Comp
L GND #PWR05
U 1 1 582C5684
P 8300 1500
F 0 "#PWR05" H 8300 1250 50  0001 C CNN
F 1 "GND" H 8300 1350 50  0000 C CNN
F 2 "" H 8300 1500 50  0000 C CNN
F 3 "" H 8300 1500 50  0000 C CNN
	1    8300 1500
	1    0    0    -1  
$EndComp
$Comp
L CONN_01X09 P2
U 1 1 582C88ED
P 5825 7200
F 0 "P2" H 5825 7700 50  0000 C CNN
F 1 "CZUJNIKI" V 5925 7200 50  0000 C CNN
F 2 "" H 5825 7200 50  0001 C CNN
F 3 "" H 5825 7200 50  0000 C CNN
	1    5825 7200
	0    -1   1    0   
$EndComp
NoConn ~ 4275 4175
NoConn ~ 4275 4275
NoConn ~ 4275 4375
NoConn ~ 4275 3075
$Comp
L SWITCH SW1
U 1 1 582FAF38
P 1000 2350
F 0 "SW1" H 1100 2600 79  0000 C CNN
F 1 "SWITCH" H 1075 2125 79  0000 C CNN
F 2 "" H 1000 2350 157 0001 C CNN
F 3 "" H 1000 2350 157 0000 C CNN
	1    1000 2350
	1    0    0    -1  
$EndComp
$Comp
L TB6612 U11
U 1 1 582E975F
P 9825 5300
F 0 "U11" H 9425 4500 50  0000 C CNN
F 1 "TB6612" H 9825 6000 50  0000 C CNN
F 2 "" H 9825 5300 50  0001 C CNN
F 3 "" H 9825 5300 50  0001 C CNN
	1    9825 5300
	1    0    0    -1  
$EndComp
$Comp
L C_Small C13
U 1 1 582E9F8F
P 10800 4400
F 0 "C13" H 10810 4470 50  0000 L CNN
F 1 "100nF" H 10810 4320 50  0000 L CNN
F 2 "" H 10800 4400 50  0001 C CNN
F 3 "" H 10800 4400 50  0000 C CNN
	1    10800 4400
	1    0    0    -1  
$EndComp
$Comp
L GND #PWR06
U 1 1 582EA6CB
P 11025 4650
F 0 "#PWR06" H 11025 4400 50  0001 C CNN
F 1 "GND" H 11025 4500 50  0000 C CNN
F 2 "" H 11025 4650 50  0000 C CNN
F 3 "" H 11025 4650 50  0000 C CNN
	1    11025 4650
	1    0    0    -1  
$EndComp
$Comp
L GND #PWR07
U 1 1 582ED427
P 8875 6175
F 0 "#PWR07" H 8875 5925 50  0001 C CNN
F 1 "GND" H 8875 6025 50  0000 C CNN
F 2 "" H 8875 6175 50  0000 C CNN
F 3 "" H 8875 6175 50  0000 C CNN
	1    8875 6175
	1    0    0    -1  
$EndComp
$Comp
L +3.3V #PWR08
U 1 1 582EE9FF
P 8975 4375
F 0 "#PWR08" H 8975 4225 50  0001 C CNN
F 1 "+3.3V" H 8975 4515 50  0000 C CNN
F 2 "" H 8975 4375 50  0000 C CNN
F 3 "" H 8975 4375 50  0000 C CNN
	1    8975 4375
	1    0    0    -1  
$EndComp
$Comp
L C_Small C7
U 1 1 582EEAD1
P 8525 4525
F 0 "C7" H 8535 4595 50  0000 L CNN
F 1 "100nF" H 8535 4445 50  0000 L CNN
F 2 "" H 8525 4525 50  0001 C CNN
F 3 "" H 8525 4525 50  0000 C CNN
	1    8525 4525
	1    0    0    -1  
$EndComp
$Comp
L GND #PWR09
U 1 1 582EFDC4
P 8525 4775
F 0 "#PWR09" H 8525 4525 50  0001 C CNN
F 1 "GND" H 8525 4625 50  0000 C CNN
F 2 "" H 8525 4775 50  0000 C CNN
F 3 "" H 8525 4775 50  0000 C CNN
	1    8525 4775
	1    0    0    -1  
$EndComp
$Comp
L CONN_01X02 P6
U 1 1 582F2DCE
P 9350 1950
F 0 "P6" H 9350 2100 50  0000 C CNN
F 1 "MOTOR1" V 9450 1950 50  0000 C CNN
F 2 "" H 9350 1950 50  0001 C CNN
F 3 "" H 9350 1950 50  0000 C CNN
	1    9350 1950
	-1   0    0    -1  
$EndComp
$Comp
L CONN_01X02 P7
U 1 1 582F2E8B
P 9525 4350
F 0 "P7" H 9525 4500 50  0000 C CNN
F 1 "MOTOR2" V 9625 4350 50  0000 C CNN
F 2 "" H 9525 4350 50  0001 C CNN
F 3 "" H 9525 4350 50  0000 C CNN
	1    9525 4350
	-1   0    0    -1  
$EndComp
$Comp
L C_Small C10
U 1 1 582F3292
P 9675 1950
F 0 "C10" H 9685 2020 50  0000 L CNN
F 1 "100nF" H 9685 1870 50  0000 L CNN
F 2 "" H 9675 1950 50  0001 C CNN
F 3 "" H 9675 1950 50  0000 C CNN
	1    9675 1950
	1    0    0    -1  
$EndComp
$Comp
L C_Small C11
U 1 1 582F3313
P 9850 4350
F 0 "C11" H 9860 4420 50  0000 L CNN
F 1 "100nF" H 9860 4270 50  0000 L CNN
F 2 "" H 9850 4350 50  0001 C CNN
F 3 "" H 9850 4350 50  0000 C CNN
	1    9850 4350
	1    0    0    -1  
$EndComp
$Comp
L R_Small R1
U 1 1 582FF5D5
P 600 4075
F 0 "R1" H 630 4095 50  0000 L CNN
F 1 "220R" H 630 4035 50  0000 L CNN
F 2 "" H 600 4075 50  0001 C CNN
F 3 "" H 600 4075 50  0000 C CNN
	1    600  4075
	1    0    0    -1  
$EndComp
$Comp
L +3.3V #PWR010
U 1 1 582FF65A
P 600 3975
F 0 "#PWR010" H 600 3825 50  0001 C CNN
F 1 "+3.3V" H 600 4115 50  0000 C CNN
F 2 "" H 600 3975 50  0000 C CNN
F 3 "" H 600 3975 50  0000 C CNN
	1    600  3975
	1    0    0    -1  
$EndComp
$Comp
L KTIR0711S U1
U 1 1 583007C9
P 1000 4375
F 0 "U1" H 800 4575 50  0000 L CNN
F 1 "KTIR0711S" H 1000 4575 50  0000 L CNN
F 2 "" H 800 4175 50  0001 L CIN
F 3 "" H 1000 4375 50  0000 L CNN
	1    1000 4375
	1    0    0    -1  
$EndComp
$Comp
L R_Small R4
U 1 1 58300E33
P 1450 4075
F 0 "R4" H 1480 4095 50  0000 L CNN
F 1 "10K" H 1480 4035 50  0000 L CNN
F 2 "" H 1450 4075 50  0001 C CNN
F 3 "" H 1450 4075 50  0000 C CNN
	1    1450 4075
	1    0    0    -1  
$EndComp
$Comp
L +3.3V #PWR011
U 1 1 58300EC2
P 1450 3975
F 0 "#PWR011" H 1450 3825 50  0001 C CNN
F 1 "+3.3V" H 1450 4115 50  0000 C CNN
F 2 "" H 1450 3975 50  0000 C CNN
F 3 "" H 1450 3975 50  0000 C CNN
	1    1450 3975
	1    0    0    -1  
$EndComp
Text Label 1675 4275 0    60   ~ 0
KTIR1
$Comp
L STM32F100C8 U9
U 1 1 582118CE
P 5775 3025
F 0 "U9" H 4475 4675 60  0000 C CNN
F 1 "STM32F100C8" H 6825 1375 60  0000 C CNN
F 2 "" H 5775 3025 40  0000 C CIN
F 3 "" H 5775 3025 60  0000 C CNN
	1    5775 3025
	1    0    0    -1  
$EndComp
$Comp
L R_Small R7
U 1 1 58304269
P 2075 4075
F 0 "R7" H 2105 4095 50  0000 L CNN
F 1 "220R" H 2105 4035 50  0000 L CNN
F 2 "" H 2075 4075 50  0001 C CNN
F 3 "" H 2075 4075 50  0000 C CNN
	1    2075 4075
	1    0    0    -1  
$EndComp
$Comp
L +3.3V #PWR012
U 1 1 5830426F
P 2075 3975
F 0 "#PWR012" H 2075 3825 50  0001 C CNN
F 1 "+3.3V" H 2075 4115 50  0000 C CNN
F 2 "" H 2075 3975 50  0000 C CNN
F 3 "" H 2075 3975 50  0000 C CNN
	1    2075 3975
	1    0    0    -1  
$EndComp
$Comp
L KTIR0711S U5
U 1 1 58304275
P 2475 4375
F 0 "U5" H 2275 4575 50  0000 L CNN
F 1 "KTIR0711S" H 2475 4575 50  0000 L CNN
F 2 "" H 2275 4175 50  0001 L CIN
F 3 "" H 2475 4375 50  0000 L CNN
	1    2475 4375
	1    0    0    -1  
$EndComp
$Comp
L R_Small R11
U 1 1 5830427E
P 2925 4075
F 0 "R11" H 2955 4095 50  0000 L CNN
F 1 "10K" H 2955 4035 50  0000 L CNN
F 2 "" H 2925 4075 50  0001 C CNN
F 3 "" H 2925 4075 50  0000 C CNN
	1    2925 4075
	1    0    0    -1  
$EndComp
$Comp
L +3.3V #PWR013
U 1 1 58304284
P 2925 3975
F 0 "#PWR013" H 2925 3825 50  0001 C CNN
F 1 "+3.3V" H 2925 4115 50  0000 C CNN
F 2 "" H 2925 3975 50  0000 C CNN
F 3 "" H 2925 3975 50  0000 C CNN
	1    2925 3975
	1    0    0    -1  
$EndComp
Text Label 3150 4275 0    60   ~ 0
KTIR2
$Comp
L R_Small R2
U 1 1 58304400
P 600 5275
F 0 "R2" H 630 5295 50  0000 L CNN
F 1 "220R" H 630 5235 50  0000 L CNN
F 2 "" H 600 5275 50  0001 C CNN
F 3 "" H 600 5275 50  0000 C CNN
	1    600  5275
	1    0    0    -1  
$EndComp
$Comp
L +3.3V #PWR014
U 1 1 58304406
P 600 5175
F 0 "#PWR014" H 600 5025 50  0001 C CNN
F 1 "+3.3V" H 600 5315 50  0000 C CNN
F 2 "" H 600 5175 50  0000 C CNN
F 3 "" H 600 5175 50  0000 C CNN
	1    600  5175
	1    0    0    -1  
$EndComp
$Comp
L KTIR0711S U2
U 1 1 5830440C
P 1000 5575
F 0 "U2" H 800 5775 50  0000 L CNN
F 1 "KTIR0711S" H 1000 5775 50  0000 L CNN
F 2 "" H 800 5375 50  0001 L CIN
F 3 "" H 1000 5575 50  0000 L CNN
	1    1000 5575
	1    0    0    -1  
$EndComp
$Comp
L R_Small R5
U 1 1 58304415
P 1450 5275
F 0 "R5" H 1480 5295 50  0000 L CNN
F 1 "10K" H 1480 5235 50  0000 L CNN
F 2 "" H 1450 5275 50  0001 C CNN
F 3 "" H 1450 5275 50  0000 C CNN
	1    1450 5275
	1    0    0    -1  
$EndComp
$Comp
L +3.3V #PWR015
U 1 1 5830441B
P 1450 5175
F 0 "#PWR015" H 1450 5025 50  0001 C CNN
F 1 "+3.3V" H 1450 5315 50  0000 C CNN
F 2 "" H 1450 5175 50  0000 C CNN
F 3 "" H 1450 5175 50  0000 C CNN
	1    1450 5175
	1    0    0    -1  
$EndComp
Text Label 1675 5475 0    60   ~ 0
KTIR3
$Comp
L R_Small R8
U 1 1 5830442F
P 2075 5275
F 0 "R8" H 2105 5295 50  0000 L CNN
F 1 "220R" H 2105 5235 50  0000 L CNN
F 2 "" H 2075 5275 50  0001 C CNN
F 3 "" H 2075 5275 50  0000 C CNN
	1    2075 5275
	1    0    0    -1  
$EndComp
$Comp
L +3.3V #PWR016
U 1 1 58304435
P 2075 5175
F 0 "#PWR016" H 2075 5025 50  0001 C CNN
F 1 "+3.3V" H 2075 5315 50  0000 C CNN
F 2 "" H 2075 5175 50  0000 C CNN
F 3 "" H 2075 5175 50  0000 C CNN
	1    2075 5175
	1    0    0    -1  
$EndComp
$Comp
L KTIR0711S U6
U 1 1 5830443B
P 2475 5575
F 0 "U6" H 2275 5775 50  0000 L CNN
F 1 "KTIR0711S" H 2475 5775 50  0000 L CNN
F 2 "" H 2275 5375 50  0001 L CIN
F 3 "" H 2475 5575 50  0000 L CNN
	1    2475 5575
	1    0    0    -1  
$EndComp
$Comp
L R_Small R12
U 1 1 58304444
P 2925 5275
F 0 "R12" H 2955 5295 50  0000 L CNN
F 1 "10K" H 2955 5235 50  0000 L CNN
F 2 "" H 2925 5275 50  0001 C CNN
F 3 "" H 2925 5275 50  0000 C CNN
	1    2925 5275
	1    0    0    -1  
$EndComp
$Comp
L +3.3V #PWR017
U 1 1 5830444A
P 2925 5175
F 0 "#PWR017" H 2925 5025 50  0001 C CNN
F 1 "+3.3V" H 2925 5315 50  0000 C CNN
F 2 "" H 2925 5175 50  0000 C CNN
F 3 "" H 2925 5175 50  0000 C CNN
	1    2925 5175
	1    0    0    -1  
$EndComp
Text Label 3150 5475 0    60   ~ 0
KTIR4
$Comp
L R_Small R3
U 1 1 583054FC
P 625 6475
F 0 "R3" H 655 6495 50  0000 L CNN
F 1 "220R" H 655 6435 50  0000 L CNN
F 2 "" H 625 6475 50  0001 C CNN
F 3 "" H 625 6475 50  0000 C CNN
	1    625  6475
	1    0    0    -1  
$EndComp
$Comp
L +3.3V #PWR018
U 1 1 58305502
P 625 6375
F 0 "#PWR018" H 625 6225 50  0001 C CNN
F 1 "+3.3V" H 625 6515 50  0000 C CNN
F 2 "" H 625 6375 50  0000 C CNN
F 3 "" H 625 6375 50  0000 C CNN
	1    625  6375
	1    0    0    -1  
$EndComp
$Comp
L KTIR0711S U3
U 1 1 58305508
P 1025 6775
F 0 "U3" H 825 6975 50  0000 L CNN
F 1 "KTIR0711S" H 1025 6975 50  0000 L CNN
F 2 "" H 825 6575 50  0001 L CIN
F 3 "" H 1025 6775 50  0000 L CNN
	1    1025 6775
	1    0    0    -1  
$EndComp
$Comp
L R_Small R6
U 1 1 58305511
P 1475 6475
F 0 "R6" H 1505 6495 50  0000 L CNN
F 1 "10K" H 1505 6435 50  0000 L CNN
F 2 "" H 1475 6475 50  0001 C CNN
F 3 "" H 1475 6475 50  0000 C CNN
	1    1475 6475
	1    0    0    -1  
$EndComp
$Comp
L +3.3V #PWR019
U 1 1 58305517
P 1475 6375
F 0 "#PWR019" H 1475 6225 50  0001 C CNN
F 1 "+3.3V" H 1475 6515 50  0000 C CNN
F 2 "" H 1475 6375 50  0000 C CNN
F 3 "" H 1475 6375 50  0000 C CNN
	1    1475 6375
	1    0    0    -1  
$EndComp
Text Label 1700 6675 0    60   ~ 0
KTIR5
$Comp
L R_Small R9
U 1 1 5830552B
P 2100 6475
F 0 "R9" H 2130 6495 50  0000 L CNN
F 1 "220R" H 2130 6435 50  0000 L CNN
F 2 "" H 2100 6475 50  0001 C CNN
F 3 "" H 2100 6475 50  0000 C CNN
	1    2100 6475
	1    0    0    -1  
$EndComp
$Comp
L +3.3V #PWR020
U 1 1 58305531
P 2100 6375
F 0 "#PWR020" H 2100 6225 50  0001 C CNN
F 1 "+3.3V" H 2100 6515 50  0000 C CNN
F 2 "" H 2100 6375 50  0000 C CNN
F 3 "" H 2100 6375 50  0000 C CNN
	1    2100 6375
	1    0    0    -1  
$EndComp
$Comp
L KTIR0711S U7
U 1 1 58305537
P 2500 6775
F 0 "U7" H 2300 6975 50  0000 L CNN
F 1 "KTIR0711S" H 2500 6975 50  0000 L CNN
F 2 "" H 2300 6575 50  0001 L CIN
F 3 "" H 2500 6775 50  0000 L CNN
	1    2500 6775
	1    0    0    -1  
$EndComp
$Comp
L R_Small R13
U 1 1 58305540
P 2950 6475
F 0 "R13" H 2980 6495 50  0000 L CNN
F 1 "10K" H 2980 6435 50  0000 L CNN
F 2 "" H 2950 6475 50  0001 C CNN
F 3 "" H 2950 6475 50  0000 C CNN
	1    2950 6475
	1    0    0    -1  
$EndComp
$Comp
L +3.3V #PWR021
U 1 1 58305546
P 2950 6375
F 0 "#PWR021" H 2950 6225 50  0001 C CNN
F 1 "+3.3V" H 2950 6515 50  0000 C CNN
F 2 "" H 2950 6375 50  0000 C CNN
F 3 "" H 2950 6375 50  0000 C CNN
	1    2950 6375
	1    0    0    -1  
$EndComp
Text Label 3175 6675 0    60   ~ 0
KTIR6
$Comp
L R_Small R14
U 1 1 58305695
P 3700 5850
F 0 "R14" H 3730 5870 50  0000 L CNN
F 1 "220R" H 3730 5810 50  0000 L CNN
F 2 "" H 3700 5850 50  0001 C CNN
F 3 "" H 3700 5850 50  0000 C CNN
	1    3700 5850
	1    0    0    -1  
$EndComp
$Comp
L +3.3V #PWR022
U 1 1 5830569B
P 3700 5750
F 0 "#PWR022" H 3700 5600 50  0001 C CNN
F 1 "+3.3V" H 3700 5890 50  0000 C CNN
F 2 "" H 3700 5750 50  0000 C CNN
F 3 "" H 3700 5750 50  0000 C CNN
	1    3700 5750
	1    0    0    -1  
$EndComp
$Comp
L KTIR0711S U8
U 1 1 583056A1
P 4100 6150
F 0 "U8" H 3900 6350 50  0000 L CNN
F 1 "KTIR0711S" H 4100 6350 50  0000 L CNN
F 2 "" H 3900 5950 50  0001 L CIN
F 3 "" H 4100 6150 50  0000 L CNN
	1    4100 6150
	1    0    0    -1  
$EndComp
$Comp
L R_Small R15
U 1 1 583056AA
P 4550 5850
F 0 "R15" H 4580 5870 50  0000 L CNN
F 1 "10K" H 4580 5810 50  0000 L CNN
F 2 "" H 4550 5850 50  0001 C CNN
F 3 "" H 4550 5850 50  0000 C CNN
	1    4550 5850
	1    0    0    -1  
$EndComp
$Comp
L +3.3V #PWR023
U 1 1 583056B0
P 4550 5750
F 0 "#PWR023" H 4550 5600 50  0001 C CNN
F 1 "+3.3V" H 4550 5890 50  0000 C CNN
F 2 "" H 4550 5750 50  0000 C CNN
F 3 "" H 4550 5750 50  0000 C CNN
	1    4550 5750
	1    0    0    -1  
$EndComp
Text Label 4775 6050 0    60   ~ 0
KTIR7
$Comp
L +3.3V #PWR024
U 1 1 583172FA
P 8200 1700
F 0 "#PWR024" H 8200 1550 50  0001 C CNN
F 1 "+3.3V" H 8200 1840 50  0000 C CNN
F 2 "" H 8200 1700 50  0000 C CNN
F 3 "" H 8200 1700 50  0000 C CNN
	1    8200 1700
	-1   0    0    1   
$EndComp
$Comp
L GND #PWR025
U 1 1 5833CF71
P 6225 6875
F 0 "#PWR025" H 6225 6625 50  0001 C CNN
F 1 "GND" H 6225 6725 50  0000 C CNN
F 2 "" H 6225 6875 50  0000 C CNN
F 3 "" H 6225 6875 50  0000 C CNN
	1    6225 6875
	-1   0    0    1   
$EndComp
$Comp
L +3.3V #PWR026
U 1 1 5833D154
P 6125 6650
F 0 "#PWR026" H 6125 6500 50  0001 C CNN
F 1 "+3.3V" H 6125 6790 50  0000 C CNN
F 2 "" H 6125 6650 50  0000 C CNN
F 3 "" H 6125 6650 50  0000 C CNN
	1    6125 6650
	1    0    0    -1  
$EndComp
$Comp
L CONN_01X04 P3
U 1 1 5836A488
P 3850 4675
F 0 "P3" H 3850 4925 50  0000 C CNN
F 1 "BLUETOOTH" V 3950 4675 50  0000 C CNN
F 2 "" H 3850 4675 50  0001 C CNN
F 3 "" H 3850 4675 50  0000 C CNN
	1    3850 4675
	0    -1   1    0   
$EndComp
$Comp
L GND #PWR027
U 1 1 5836C1A2
P 3900 4475
F 0 "#PWR027" H 3900 4225 50  0001 C CNN
F 1 "GND" H 3900 4325 50  0000 C CNN
F 2 "" H 3900 4475 50  0000 C CNN
F 3 "" H 3900 4475 50  0000 C CNN
	1    3900 4475
	-1   0    0    1   
$EndComp
$Comp
L +3.3V #PWR028
U 1 1 5836C218
P 4000 4325
F 0 "#PWR028" H 4000 4175 50  0001 C CNN
F 1 "+3.3V" H 4000 4465 50  0000 C CNN
F 2 "" H 4000 4325 50  0000 C CNN
F 3 "" H 4000 4325 50  0000 C CNN
	1    4000 4325
	1    0    0    -1  
$EndComp
$Comp
L +3.3V #PWR029
U 1 1 58339588
P 4000 2225
F 0 "#PWR029" H 4000 2075 50  0001 C CNN
F 1 "+3.3V" H 4000 2365 50  0000 C CNN
F 2 "" H 4000 2225 50  0000 C CNN
F 3 "" H 4000 2225 50  0000 C CNN
	1    4000 2225
	1    0    0    -1  
$EndComp
Text Label 5425 7000 1    60   ~ 0
KTIR1
Text Label 5525 7000 1    60   ~ 0
KTIR2
Text Label 5625 7000 1    60   ~ 0
KTIR3
Text Label 5725 7000 1    60   ~ 0
KTIR4
Text Label 5825 7000 1    60   ~ 0
KTIR5
Text Label 5925 7000 1    60   ~ 0
KTIR6
Text Label 6025 7000 1    60   ~ 0
KTIR7
$Comp
L +3V3 #PWR030
U 1 1 5832690E
P 2900 2675
F 0 "#PWR030" H 2900 2525 50  0001 C CNN
F 1 "+3V3" H 2900 2815 50  0000 C CNN
F 2 "" H 2900 2675 50  0000 C CNN
F 3 "" H 2900 2675 50  0000 C CNN
	1    2900 2675
	1    0    0    -1  
$EndComp
$Comp
L CP1_Small C9
U 1 1 5832A2A3
P 8800 4525
F 0 "C9" H 8810 4595 50  0000 L CNN
F 1 "10uF" H 8810 4445 50  0000 L CNN
F 2 "" H 8800 4525 50  0001 C CNN
F 3 "" H 8800 4525 50  0000 C CNN
	1    8800 4525
	1    0    0    -1  
$EndComp
$Comp
L CP1_Small C15
U 1 1 58330D6E
P 11025 4400
F 0 "C15" H 11035 4470 50  0000 L CNN
F 1 "10uF" H 11035 4320 50  0000 L CNN
F 2 "" H 11025 4400 50  0001 C CNN
F 3 "" H 11025 4400 50  0000 C CNN
	1    11025 4400
	1    0    0    -1  
$EndComp
$Comp
L CONN_01X05 P4
U 1 1 58336667
P 7125 6025
F 0 "P4" H 7125 6325 50  0000 C CNN
F 1 "PROGRAMATOR" V 7225 6025 50  0000 C CNN
F 2 "" H 7125 6025 50  0001 C CNN
F 3 "" H 7125 6025 50  0000 C CNN
	1    7125 6025
	-1   0    0    -1  
$EndComp
$Comp
L +3.3V #PWR031
U 1 1 58336EC8
P 7400 6225
F 0 "#PWR031" H 7400 6075 50  0001 C CNN
F 1 "+3.3V" H 7400 6365 50  0000 C CNN
F 2 "" H 7400 6225 50  0000 C CNN
F 3 "" H 7400 6225 50  0000 C CNN
	1    7400 6225
	-1   0    0    1   
$EndComp
Text GLabel 7400 6125 2    39   Input ~ 0
SWCLK
Text GLabel 7400 5925 2    39   Input ~ 0
SWDIO
Text GLabel 7400 5825 2    39   Input ~ 0
NRST
$Comp
L TB6612 U10
U 1 1 58347495
P 9700 3050
F 0 "U10" H 9300 2250 50  0000 C CNN
F 1 "TB6612" H 9700 3750 50  0000 C CNN
F 2 "" H 9700 3050 50  0001 C CNN
F 3 "" H 9700 3050 50  0001 C CNN
	1    9700 3050
	1    0    0    -1  
$EndComp
$Comp
L VCC #PWR032
U 1 1 5834749B
P 10550 2000
F 0 "#PWR032" H 10550 1850 50  0001 C CNN
F 1 "VCC" H 10550 2150 50  0000 C CNN
F 2 "" H 10550 2000 50  0000 C CNN
F 3 "" H 10550 2000 50  0000 C CNN
	1    10550 2000
	1    0    0    -1  
$EndComp
$Comp
L C_Small C12
U 1 1 583474A1
P 10675 2150
F 0 "C12" H 10685 2220 50  0000 L CNN
F 1 "100nF" H 10685 2070 50  0000 L CNN
F 2 "" H 10675 2150 50  0001 C CNN
F 3 "" H 10675 2150 50  0000 C CNN
	1    10675 2150
	1    0    0    -1  
$EndComp
$Comp
L GND #PWR033
U 1 1 583474A7
P 10900 2400
F 0 "#PWR033" H 10900 2150 50  0001 C CNN
F 1 "GND" H 10900 2250 50  0000 C CNN
F 2 "" H 10900 2400 50  0000 C CNN
F 3 "" H 10900 2400 50  0000 C CNN
	1    10900 2400
	1    0    0    -1  
$EndComp
$Comp
L GND #PWR034
U 1 1 583474B1
P 8750 3925
F 0 "#PWR034" H 8750 3675 50  0001 C CNN
F 1 "GND" H 8750 3775 50  0000 C CNN
F 2 "" H 8750 3925 50  0000 C CNN
F 3 "" H 8750 3925 50  0000 C CNN
	1    8750 3925
	1    0    0    -1  
$EndComp
$Comp
L +3.3V #PWR035
U 1 1 583474B7
P 8850 2125
F 0 "#PWR035" H 8850 1975 50  0001 C CNN
F 1 "+3.3V" H 8850 2265 50  0000 C CNN
F 2 "" H 8850 2125 50  0000 C CNN
F 3 "" H 8850 2125 50  0000 C CNN
	1    8850 2125
	1    0    0    -1  
$EndComp
$Comp
L C_Small C6
U 1 1 583474BD
P 8400 2275
F 0 "C6" H 8410 2345 50  0000 L CNN
F 1 "100nF" H 8410 2195 50  0000 L CNN
F 2 "" H 8400 2275 50  0001 C CNN
F 3 "" H 8400 2275 50  0000 C CNN
	1    8400 2275
	1    0    0    -1  
$EndComp
$Comp
L GND #PWR036
U 1 1 583474C3
P 8400 2525
F 0 "#PWR036" H 8400 2275 50  0001 C CNN
F 1 "GND" H 8400 2375 50  0000 C CNN
F 2 "" H 8400 2525 50  0000 C CNN
F 3 "" H 8400 2525 50  0000 C CNN
	1    8400 2525
	1    0    0    -1  
$EndComp
$Comp
L CP1_Small C8
U 1 1 58347507
P 8675 2275
F 0 "C8" H 8685 2345 50  0000 L CNN
F 1 "10uF" H 8685 2195 50  0000 L CNN
F 2 "" H 8675 2275 50  0001 C CNN
F 3 "" H 8675 2275 50  0000 C CNN
	1    8675 2275
	1    0    0    -1  
$EndComp
$Comp
L CP1_Small C14
U 1 1 5834750D
P 10900 2150
F 0 "C14" H 10910 2220 50  0000 L CNN
F 1 "10uF" H 10910 2070 50  0000 L CNN
F 2 "" H 10900 2150 50  0001 C CNN
F 3 "" H 10900 2150 50  0000 C CNN
	1    10900 2150
	1    0    0    -1  
$EndComp
Text GLabel 8800 2700 0    39   Input ~ 0
PWM_A
Text GLabel 8700 2800 0    39   Input ~ 0
AIN1
Text GLabel 8700 2900 0    39   Input ~ 0
AIN2
Text GLabel 10750 2850 2    39   Input ~ 0
AO1
Text GLabel 10750 3050 2    39   Input ~ 0
AO2
Text GLabel 10900 5100 2    39   Input ~ 0
BO1
Text GLabel 10900 5300 2    39   Input ~ 0
BO2
Wire Wire Line
	8300 1300 8300 1500
Wire Wire Line
	8200 1300 8200 1700
Wire Wire Line
	7300 1775 7275 1775
Wire Wire Line
	7350 1875 7275 1875
Wire Wire Line
	7400 1975 7275 1975
Wire Wire Line
	7450 2075 7275 2075
Wire Wire Line
	7500 2175 7275 2175
Wire Wire Line
	7550 2275 7275 2275
Wire Wire Line
	7600 2375 7275 2375
Connection ~ 7600 2375
Wire Wire Line
	7600 1600 7600 2375
Wire Wire Line
	8100 1600 7600 1600
Wire Wire Line
	8100 1300 8100 1600
Connection ~ 7550 2275
Wire Wire Line
	8000 1550 8000 1300
Wire Wire Line
	7550 1550 8000 1550
Wire Wire Line
	7550 1550 7550 2275
Connection ~ 7500 2175
Wire Wire Line
	7900 1500 7900 1300
Wire Wire Line
	7500 1500 7900 1500
Wire Wire Line
	7500 2175 7500 1500
Connection ~ 7450 2075
Wire Wire Line
	7800 1450 7800 1300
Wire Wire Line
	7450 1450 7800 1450
Wire Wire Line
	7450 2075 7450 1450
Connection ~ 7400 1975
Wire Wire Line
	7700 1400 7700 1300
Wire Wire Line
	7400 1400 7700 1400
Wire Wire Line
	7400 1400 7400 1975
Connection ~ 7350 1875
Wire Wire Line
	7350 1350 7350 1875
Wire Wire Line
	7600 1350 7350 1350
Wire Wire Line
	7600 1300 7600 1350
Connection ~ 7300 1775
Wire Wire Line
	7300 1300 7300 1775
Wire Wire Line
	7500 1300 7300 1300
Wire Wire Line
	2925 3200 2925 3275
Wire Wire Line
	2425 3200 2925 3200
Wire Wire Line
	2900 2800 2900 2675
Wire Wire Line
	2175 2800 2900 2800
Connection ~ 2700 3200
Connection ~ 2700 2800
Connection ~ 2425 3100
Connection ~ 2425 2800
Connection ~ 2175 3100
Wire Wire Line
	2425 3050 2425 3200
Wire Wire Line
	2425 2800 2425 2850
Connection ~ 1775 3100
Wire Wire Line
	2175 3100 2175 3050
Wire Wire Line
	2175 2800 2175 2850
Connection ~ 1375 3100
Wire Wire Line
	1375 3100 1375 3050
Connection ~ 1375 2800
Wire Wire Line
	1375 2800 1375 2850
Connection ~ 1100 3100
Connection ~ 1100 2800
Wire Wire Line
	1100 3100 1100 3050
Wire Wire Line
	1100 2800 1100 2850
Connection ~ 5900 5075
Wire Wire Line
	5900 5075 5900 4775
Wire Wire Line
	5900 4775 5775 4775
Connection ~ 5750 5075
Wire Wire Line
	6075 5075 6075 4775
Connection ~ 5625 5075
Wire Wire Line
	5625 4775 5625 5075
Wire Wire Line
	5475 5075 6075 5075
Wire Wire Line
	5475 4775 5475 5075
Connection ~ 5775 975 
Wire Wire Line
	5850 975  5850 950 
Connection ~ 5625 975 
Wire Wire Line
	5775 975  5775 1275
Connection ~ 5300 975 
Wire Wire Line
	5300 975  5850 975 
Wire Wire Line
	5625 1275 5625 975 
Wire Wire Line
	5300 1275 5475 1275
Wire Wire Line
	5300 875  5300 1275
Wire Wire Line
	6725 900  6725 1000
Wire Wire Line
	6500 900  6725 900 
Connection ~ 6075 950 
Wire Wire Line
	6075 900  6300 900 
Wire Wire Line
	6075 950  6050 950 
Wire Wire Line
	10675 4750 10575 4750
Wire Wire Line
	10675 4850 10575 4850
Connection ~ 10675 4750
Wire Wire Line
	10675 4950 10575 4950
Connection ~ 10675 4850
Connection ~ 10800 4300
Wire Wire Line
	10800 4500 10800 4550
Wire Wire Line
	10800 4550 11025 4550
Wire Wire Line
	11025 4500 11025 4650
Connection ~ 11025 4550
Wire Wire Line
	10575 5100 10900 5100
Wire Wire Line
	10575 5200 10675 5200
Wire Wire Line
	10675 5200 10675 5100
Connection ~ 10675 5100
Wire Wire Line
	10575 5300 10900 5300
Wire Wire Line
	10675 5400 10575 5400
Connection ~ 10675 5300
Wire Wire Line
	9075 5600 8875 5600
Wire Wire Line
	8875 5600 8875 6175
Wire Wire Line
	9075 6000 8875 6000
Connection ~ 8875 6000
Wire Wire Line
	9075 5900 8875 5900
Connection ~ 8875 5900
Wire Wire Line
	8875 5800 9075 5800
Connection ~ 8875 5800
Wire Wire Line
	9075 5700 8875 5700
Connection ~ 8875 5700
Wire Wire Line
	8975 4750 9075 4750
Wire Wire Line
	8975 4375 8975 4850
Wire Wire Line
	8975 4850 9075 4850
Connection ~ 8975 4750
Wire Wire Line
	8525 4425 8975 4425
Connection ~ 8975 4425
Connection ~ 8800 4425
Wire Wire Line
	8800 4625 8800 4675
Wire Wire Line
	8800 4675 8525 4675
Wire Wire Line
	8525 4625 8525 4775
Connection ~ 8525 4675
Wire Wire Line
	9675 2100 9675 2050
Wire Wire Line
	9550 2100 9925 2100
Wire Wire Line
	9550 2100 9550 2000
Wire Wire Line
	9550 1900 9550 1850
Wire Wire Line
	9550 1850 9925 1850
Connection ~ 9675 1850
Connection ~ 9675 2100
Wire Wire Line
	9725 4400 9725 4500
Wire Wire Line
	9725 4500 10100 4500
Wire Wire Line
	9850 4500 9850 4450
Wire Wire Line
	9725 4300 9725 4250
Wire Wire Line
	9725 4250 10100 4250
Connection ~ 9850 4250
Connection ~ 9850 4500
Wire Wire Line
	700  4475 700  4625
Wire Wire Line
	700  4625 1300 4625
Connection ~ 975  4625
Wire Wire Line
	700  4275 600  4275
Wire Wire Line
	600  4275 600  4175
Wire Wire Line
	1300 4625 1300 4475
Wire Wire Line
	1300 4275 1675 4275
Wire Wire Line
	1450 4175 1450 4275
Connection ~ 1450 4275
Wire Wire Line
	2175 4475 2175 4625
Wire Wire Line
	2175 4625 2775 4625
Connection ~ 2450 4625
Wire Wire Line
	2175 4275 2075 4275
Wire Wire Line
	2075 4275 2075 4175
Wire Wire Line
	2775 4625 2775 4475
Wire Wire Line
	2775 4275 3150 4275
Wire Wire Line
	2925 4175 2925 4275
Connection ~ 2925 4275
Wire Wire Line
	700  5675 700  5825
Wire Wire Line
	700  5825 1300 5825
Connection ~ 975  5825
Wire Wire Line
	700  5475 600  5475
Wire Wire Line
	600  5475 600  5375
Wire Wire Line
	1300 5825 1300 5675
Wire Wire Line
	1300 5475 1675 5475
Wire Wire Line
	1450 5375 1450 5475
Connection ~ 1450 5475
Wire Wire Line
	2175 5675 2175 5825
Wire Wire Line
	2175 5825 2775 5825
Connection ~ 2450 5825
Wire Wire Line
	2175 5475 2075 5475
Wire Wire Line
	2075 5475 2075 5375
Wire Wire Line
	2775 5825 2775 5675
Wire Wire Line
	2775 5475 3150 5475
Wire Wire Line
	2925 5375 2925 5475
Connection ~ 2925 5475
Wire Wire Line
	725  6875 725  7025
Wire Wire Line
	725  7025 1325 7025
Connection ~ 1000 7025
Wire Wire Line
	725  6675 625  6675
Wire Wire Line
	625  6675 625  6575
Wire Wire Line
	1325 7025 1325 6875
Wire Wire Line
	1325 6675 1700 6675
Wire Wire Line
	1475 6575 1475 6675
Connection ~ 1475 6675
Wire Wire Line
	2200 6875 2200 7025
Wire Wire Line
	2200 7025 2800 7025
Connection ~ 2475 7025
Wire Wire Line
	2200 6675 2100 6675
Wire Wire Line
	2100 6675 2100 6575
Wire Wire Line
	2800 7025 2800 6875
Wire Wire Line
	2800 6675 3175 6675
Wire Wire Line
	2950 6575 2950 6675
Connection ~ 2950 6675
Wire Wire Line
	3800 6250 3800 6400
Wire Wire Line
	3800 6400 4400 6400
Connection ~ 4075 6400
Wire Wire Line
	3800 6050 3700 6050
Wire Wire Line
	3700 6050 3700 5950
Wire Wire Line
	4400 6400 4400 6250
Wire Wire Line
	4400 6050 4775 6050
Wire Wire Line
	4550 5950 4550 6050
Connection ~ 4550 6050
Wire Wire Line
	6225 7000 6225 6875
Wire Wire Line
	6125 7000 6125 6650
Wire Wire Line
	3800 4475 3800 3975
Wire Wire Line
	3800 3975 4275 3975
Wire Wire Line
	3700 4475 3700 3875
Wire Wire Line
	3700 3875 4275 3875
Wire Wire Line
	4000 4475 4000 4325
Wire Wire Line
	4275 2325 4000 2325
Wire Wire Line
	4000 2325 4000 2225
Wire Wire Line
	7325 5825 7400 5825
Wire Wire Line
	7325 5925 7400 5925
Wire Wire Line
	7325 6025 7400 6025
Wire Wire Line
	7325 6125 7400 6125
Wire Wire Line
	7325 6225 7400 6225
Wire Wire Line
	10550 2500 10450 2500
Wire Wire Line
	10550 2000 10550 2700
Wire Wire Line
	10550 2600 10450 2600
Connection ~ 10550 2500
Wire Wire Line
	10550 2700 10450 2700
Connection ~ 10550 2600
Wire Wire Line
	10550 2050 10900 2050
Connection ~ 10550 2050
Connection ~ 10675 2050
Wire Wire Line
	10675 2250 10675 2300
Wire Wire Line
	10675 2300 10900 2300
Wire Wire Line
	10900 2250 10900 2400
Connection ~ 10900 2300
Wire Wire Line
	10450 2850 10750 2850
Wire Wire Line
	10450 2950 10550 2950
Wire Wire Line
	10550 2950 10550 2850
Connection ~ 10550 2850
Wire Wire Line
	10450 3050 10750 3050
Wire Wire Line
	10450 3150 10550 3150
Wire Wire Line
	10550 3150 10550 3050
Connection ~ 10550 3050
Wire Wire Line
	8950 3350 8750 3350
Wire Wire Line
	8750 3350 8750 3925
Wire Wire Line
	8950 3750 8750 3750
Connection ~ 8750 3750
Wire Wire Line
	8950 3650 8750 3650
Connection ~ 8750 3650
Wire Wire Line
	8750 3550 8950 3550
Connection ~ 8750 3550
Wire Wire Line
	8950 3450 8750 3450
Connection ~ 8750 3450
Wire Wire Line
	8850 2500 8950 2500
Wire Wire Line
	8850 2125 8850 2600
Wire Wire Line
	8850 2600 8950 2600
Connection ~ 8850 2500
Wire Wire Line
	8400 2175 8850 2175
Connection ~ 8850 2175
Connection ~ 8675 2175
Wire Wire Line
	8675 2375 8675 2425
Wire Wire Line
	8675 2425 8400 2425
Wire Wire Line
	8400 2375 8400 2525
Connection ~ 8400 2425
Wire Wire Line
	8800 2700 8950 2700
Wire Wire Line
	8700 2800 8950 2800
Wire Wire Line
	8950 3250 8875 3250
Wire Wire Line
	8875 3250 8875 2800
Connection ~ 8875 2800
Wire Wire Line
	8700 2900 8950 2900
Wire Wire Line
	8950 3150 8800 3150
Wire Wire Line
	8800 3150 8800 2900
Connection ~ 8800 2900
Wire Wire Line
	8950 3050 8925 3050
Wire Wire Line
	8925 3050 8925 2700
Connection ~ 8925 2700
Wire Wire Line
	10450 3300 10625 3300
Wire Wire Line
	10450 3400 10550 3400
Wire Wire Line
	10550 3400 10550 3300
Connection ~ 10550 3300
Wire Wire Line
	10625 3300 10625 2850
Connection ~ 10625 2850
Wire Wire Line
	10450 3550 10700 3550
Wire Wire Line
	10450 3650 10550 3650
Wire Wire Line
	10550 3650 10550 3550
Connection ~ 10550 3550
Wire Wire Line
	10700 3550 10700 3050
Connection ~ 10700 3050
Wire Wire Line
	10575 5550 10750 5550
Wire Wire Line
	10750 5550 10750 5100
Connection ~ 10750 5100
Wire Wire Line
	10575 5650 10675 5650
Wire Wire Line
	10675 5650 10675 5550
Connection ~ 10675 5550
Wire Wire Line
	10575 5800 10800 5800
Wire Wire Line
	10800 5800 10800 5300
Wire Wire Line
	10800 5300 10825 5300
Connection ~ 10825 5300
Wire Wire Line
	10575 5900 10675 5900
Wire Wire Line
	10675 5900 10675 5800
Connection ~ 10675 5800
Wire Wire Line
	8850 5050 9075 5050
Wire Wire Line
	9075 5500 8975 5500
Wire Wire Line
	8975 5500 8975 5050
Connection ~ 8975 5050
Wire Wire Line
	8800 5150 9075 5150
Wire Wire Line
	9075 5400 8900 5400
Wire Wire Line
	8900 5400 8900 5150
Connection ~ 8900 5150
Wire Wire Line
	9075 5300 9025 5300
Wire Wire Line
	9025 5300 9025 4950
Connection ~ 9025 4950
Wire Wire Line
	8900 4950 9075 4950
Text GLabel 8900 4950 0    39   Input ~ 0
PWM_B
Text GLabel 8850 5050 0    39   Input ~ 0
BIN1
Text GLabel 8800 5150 0    39   Input ~ 0
BIN2
$Comp
L CP_Small C1
U 1 1 58363773
P 1100 2950
F 0 "C1" H 1110 3020 50  0000 L CNN
F 1 "47uF" H 1110 2870 50  0000 L CNN
F 2 "" H 1100 2950 50  0001 C CNN
F 3 "" H 1100 2950 50  0000 C CNN
	1    1100 2950
	1    0    0    -1  
$EndComp
$Comp
L C_Small C2
U 1 1 58363857
P 1375 2950
F 0 "C2" H 1385 3020 50  0000 L CNN
F 1 "100nF" H 1385 2870 50  0000 L CNN
F 2 "" H 1375 2950 50  0001 C CNN
F 3 "" H 1375 2950 50  0000 C CNN
	1    1375 2950
	1    0    0    -1  
$EndComp
$Comp
L C_Small C3
U 1 1 5836487C
P 2175 2950
F 0 "C3" H 2185 3020 50  0000 L CNN
F 1 "100nF" H 2185 2870 50  0000 L CNN
F 2 "" H 2175 2950 50  0001 C CNN
F 3 "" H 2175 2950 50  0000 C CNN
	1    2175 2950
	1    0    0    -1  
$EndComp
Connection ~ 2175 2800
$Comp
L CP_Small C4
U 1 1 58364960
P 2425 2950
F 0 "C4" H 2435 3020 50  0000 L CNN
F 1 "10uF" H 2435 2870 50  0000 L CNN
F 2 "" H 2425 2950 50  0001 C CNN
F 3 "" H 2425 2950 50  0000 C CNN
	1    2425 2950
	1    0    0    -1  
$EndComp
$Comp
L CONN_01X02 P1
U 1 1 5836644C
P 650 2850
F 0 "P1" H 650 3000 50  0000 C CNN
F 1 "SLOT BATERII" V 750 2850 50  0000 C CNN
F 2 "" H 650 2850 50  0001 C CNN
F 3 "" H 650 2850 50  0000 C CNN
	1    650  2850
	-1   0    0    1   
$EndComp
Wire Wire Line
	850  3100 2425 3100
Wire Wire Line
	850  3100 850  2900
Wire Wire Line
	850  2800 850  2350
Wire Wire Line
	850  2350 875  2350
Wire Wire Line
	1300 2450 1300 2675
Wire Wire Line
	1300 2675 975  2675
Wire Wire Line
	975  2675 975  2800
Wire Wire Line
	975  2800 1375 2800
NoConn ~ 1300 2275
Wire Wire Line
	4275 1625 4100 1625
NoConn ~ 4275 3175
NoConn ~ 4275 3275
Wire Wire Line
	6075 900  6075 1275
Text GLabel 4100 1625 0    39   Input ~ 0
NRST
Text GLabel 4275 2875 0    39   Input ~ 0
PWM_A
Text GLabel 4275 2975 0    39   Input ~ 0
PWM_B
Text GLabel 4275 3375 0    39   Input ~ 0
AIN1
Text GLabel 4275 3475 0    39   Input ~ 0
AIN2
Text GLabel 4275 3575 0    39   Input ~ 0
BIN1
Text GLabel 4275 3675 0    39   Input ~ 0
BIN2
Text GLabel 7275 3075 2    39   Input ~ 0
SWDIO
Text GLabel 7275 3175 2    39   Input ~ 0
SWCLK
Text GLabel 10100 4250 2    39   Input ~ 0
BO1
Text GLabel 10100 4500 2    39   Input ~ 0
BO2
Text GLabel 9925 1850 2    39   Input ~ 0
AO1
Text GLabel 9925 2100 2    39   Input ~ 0
AO2
Wire Wire Line
	10675 5400 10675 5300
Wire Wire Line
	10675 4300 10675 4950
Wire Wire Line
	10675 4300 11025 4300
$Comp
L VCC #PWR037
U 1 1 583A1C8B
P 10675 4300
F 0 "#PWR037" H 10675 4150 50  0001 C CNN
F 1 "VCC" H 10675 4450 50  0000 C CNN
F 2 "" H 10675 4300 50  0000 C CNN
F 3 "" H 10675 4300 50  0000 C CNN
	1    10675 4300
	1    0    0    -1  
$EndComp
$Comp
L GND #PWR038
U 1 1 583A1F6D
P 975 4625
F 0 "#PWR038" H 975 4375 50  0001 C CNN
F 1 "GND" H 975 4475 50  0000 C CNN
F 2 "" H 975 4625 50  0000 C CNN
F 3 "" H 975 4625 50  0000 C CNN
	1    975  4625
	1    0    0    -1  
$EndComp
Text Label 7400 6025 0    39   ~ 0
GND
$Comp
L GND #PWR039
U 1 1 583A8D52
P 975 5825
F 0 "#PWR039" H 975 5575 50  0001 C CNN
F 1 "GND" H 975 5675 50  0000 C CNN
F 2 "" H 975 5825 50  0000 C CNN
F 3 "" H 975 5825 50  0000 C CNN
	1    975  5825
	1    0    0    -1  
$EndComp
$Comp
L GND #PWR040
U 1 1 583A8E9B
P 1000 7025
F 0 "#PWR040" H 1000 6775 50  0001 C CNN
F 1 "GND" H 1000 6875 50  0000 C CNN
F 2 "" H 1000 7025 50  0000 C CNN
F 3 "" H 1000 7025 50  0000 C CNN
	1    1000 7025
	1    0    0    -1  
$EndComp
$Comp
L GND #PWR041
U 1 1 583A8F15
P 2475 7025
F 0 "#PWR041" H 2475 6775 50  0001 C CNN
F 1 "GND" H 2475 6875 50  0000 C CNN
F 2 "" H 2475 7025 50  0000 C CNN
F 3 "" H 2475 7025 50  0000 C CNN
	1    2475 7025
	1    0    0    -1  
$EndComp
$Comp
L GND #PWR042
U 1 1 583A906F
P 2450 5825
F 0 "#PWR042" H 2450 5575 50  0001 C CNN
F 1 "GND" H 2450 5675 50  0000 C CNN
F 2 "" H 2450 5825 50  0000 C CNN
F 3 "" H 2450 5825 50  0000 C CNN
	1    2450 5825
	1    0    0    -1  
$EndComp
$Comp
L GND #PWR043
U 1 1 583A91E8
P 4075 6400
F 0 "#PWR043" H 4075 6150 50  0001 C CNN
F 1 "GND" H 4075 6250 50  0000 C CNN
F 2 "" H 4075 6400 50  0000 C CNN
F 3 "" H 4075 6400 50  0000 C CNN
	1    4075 6400
	1    0    0    -1  
$EndComp
$Comp
L GND #PWR044
U 1 1 583A9262
P 2450 4625
F 0 "#PWR044" H 2450 4375 50  0001 C CNN
F 1 "GND" H 2450 4475 50  0000 C CNN
F 2 "" H 2450 4625 50  0000 C CNN
F 3 "" H 2450 4625 50  0000 C CNN
	1    2450 4625
	1    0    0    -1  
$EndComp
$EndSCHEMATC
